{
    "perl"        : "6.d",
    "name"        : "WRSLL",
    "authors"     : [ "Konstantin Narkhov" ],
    "version"     : "0.0.25",
    "description" : "What retirement should look like",
    "depends"     : [
        "Test",
        "JSON::Fast",
        "Bitcoin::Core::Secp256k1",
        "Node::Ethereum::Keccak256::Native",
        "Node::Ethereum::KeyStore::V3:ver<0.0.23+>",
        "Net::Ethereum"
    ],
    "test-depends": [
        "JSON::Fast",
        "Net::Ethereum",
        "Node::Ethereum::KeyStore::V3:ver<0.0.23+>",
        "Crypt::LibGcrypt::Random:ver<1.0.5+>",
        "Bitcoin::Core::Secp256k1",
        "Node::Ethereum::Keccak256::Native"
    ],
    "license"     : "Artistic-2.0",
    "provides"    : {
        "WRSLL::Notify": "lib/WRSLL/Notify.rakumod",
        "WRSLL::Balance": "lib/WRSLL/Balance.rakumod"
    },
    "tags"        : [ "Ethereum", "Address", "Crawler" ],
    "source-url"  : "https://github.com/pheix-research/what-retirement-should-look-like.git",
    "auth"        : "zef:knarkhov",
    "api"         : "1.0"
}
