839300,000000000000000000009cca02f9c8cf9655631f793e6b1b519e4f29ac934397
839301,000000000000000000020b559e559df3a6da7c37cbc392060807530e61521562
839302,00000000000000000002ee94a39b6af6c1fccc0e053030500772b4a08fc64d7d
839303,000000000000000000002af136e2268f913e5bd1679bbcbd2ca4cd1dcabf411a
839304,000000000000000000021e4d6c3a5550af75595356a9e6611e625d76ba05619a
839305,0000000000000000000239e7a48a0d494ec4d81e6769157dd671fb71c0f134fa
839306,000000000000000000002c1937b3a58cbf71770da5f6853d53c34d0fbfd13ef9
839307,0000000000000000000267ddf485c0f989fe73e4c896d8f314117b2ad51f9c97
839308,000000000000000000011ac7a1ae7bd25137c419b7aba2f61722efc1bf93dfbf
839309,0000000000000000000307b60b5dd336cea52b9f84c5d0a668fe027ecc78c28b
839310,00000000000000000002d27115a55b1cc7d4ca3f3423d97143a6b962c5486a42
839311,00000000000000000000a7ce14a56604f693075b7a7664a24837c371379c5667
839312,0000000000000000000003b583ce6fee74553f06f38a3e759822cb35945eb637
839313,00000000000000000000e251efc321ec54c65a937834dadcfd0d23c72f27ab15
839314,000000000000000000031de388544ff448199e7163d355a114edcbbc92f0a55f
839315,00000000000000000001b59482edc15778feabc577eb0469e7ecab01bd01d5ab
839316,00000000000000000000dd0066381dbb6cb66881fa3d97ea6e5e87fd7c66fbad
839317,00000000000000000002ce8478dfcc5ab2f2daa8a7aedeb557efa298ea171953
839318,00000000000000000001d7e3c61f085cd3ed696c6fd9d02eacf850c2274a3afc
839319,000000000000000000014c22785a13d47b521fc6b168a263358977a0c70bd8c4
839320,0000000000000000000260b8c8ec771759a71b8d91a96c111d55018ad1367a59
839321,000000000000000000010517dafba0e22ae4fa01ca345bc2eb9c5c6238ed1f68
839322,000000000000000000025503e7c512d97863fe12c38ef67dda983cc274ef9606
839323,000000000000000000017ac228d39952c5e606b1d74e8be6ef623419b4d69cdf
839324,00000000000000000002dbc97744f94bd89d5c0910eeb914ccbf44ca437147c8
839325,00000000000000000000e8e11a6fabe8f5eef9a1232e7c47def5f8bcf27bb58f
839326,000000000000000000006620b2732bce45052989e0d91bcecf9094882a4cb226
839327,000000000000000000018dff5b10fc39e0783782b3b97dd2a4b3a1a3251201d2
839328,0000000000000000000196ebbbc14b52258310558b3b6db1085de6cf8d21fc6b
839329,00000000000000000002eabea23a1b48ed8efb521ccb083c1e9b1285a8d5d1ad
839330,00000000000000000000ca084882a33d06df93651167322956136038299df6c2
839331,000000000000000000015cd233ff839150cdb474af8bfa4e1f554ea4604debd8
839332,0000000000000000000223def5487b76f9af8d4439bda6a85f1673e2db8ad446
839333,0000000000000000000062bcd198b8b180c772dd28bb75c6117d0b0f8406f980
839334,00000000000000000001d5d569e721fe56fd85ff0ad2b1de1d6f29e1530e688c
839335,00000000000000000000581af7f866e530053928e8b0e7c3dfe899923d64a9fc
839336,000000000000000000018321c995fe89c7dff12de1b86df4b44e01b07e7825aa
839337,00000000000000000000f6c89dd03927dc7a3f811a6f3c66ce833e02d4a87f38
839338,000000000000000000010002dec566d4aec5271024a0c8f69ac8514165dbec70
839339,000000000000000000004506029104f6e52846d466f4799c0a88af36de6a4955
839340,00000000000000000000ecfd980c55c862015d9a99e0a73e65a32f84089039bb
839341,00000000000000000001f9656472d0d5c34363efd1c2966ffddb3e44c821040a
839342,000000000000000000020fed65ff39357e85f6fba2a6fd9cbe19a092702f58d7
839343,000000000000000000009fe3bbc79ebac8d67143227b5bffa95abeeccaa38998
839344,00000000000000000002c6cfac79f3cecdddeba313c9d0858dd1c241192313e7
839345,00000000000000000001587454dc1bbf7645913848cd978462c5ff2a5ec2f8d5
839346,00000000000000000001e66ded111c9741b56177ab708a69498e248418946150
839347,00000000000000000000e0084e9312170968aabdd81f47f8b832791283081de8
839348,000000000000000000015cc720e6ee215a8e7d463c94c71f73ef4a0cdb0ab7a9
839349,0000000000000000000029a4bb3427f860df1c93be00b41ff06509014a9a7683
839350,000000000000000000026924c00410828bb93df90d7fcd9745e85143b926513d
839351,000000000000000000024672f2f190831b073c5121e75de2e756010f872cffcd
839352,0000000000000000000116f2bdb7ac5ed1368fbbd6e3c6ee153439df957c52e9
839353,000000000000000000001153946c3d996263774efdab02fd08d9f4e326223834
839354,000000000000000000005b6737daf3bf7438cd2c591d4a04d79ca7063b351535
839355,00000000000000000000cd05de04d21953323d0b4cb4d6e8fbacc0b26db69821
839356,000000000000000000023da8545e12f983bfecdeec13788f027283c17230f587
839357,000000000000000000013d5e43d5b8c5af3ded375738eb2d7f278c624500d494
839358,0000000000000000000274441def58fee29e6dd0175802791734b0c3d658ce60
839359,00000000000000000002e44f19dd688c1498778018881163a40e8fd4602fbb32
839360,0000000000000000000183cdf42b03c0e40176e7b8495aebc24d7342219d8d84
839361,00000000000000000000773eecd1cb6252aaaadad4ee95e00963f4414c12542a
839362,0000000000000000000239e7c785f3b30bf19eafffba6313715cab4fa2c48e86
839363,00000000000000000001de12cd0a553134e5e83b29244ad09feb1496aa6b3f36
839364,0000000000000000000129a95cda0bcb6e656e7b4a045f853bf19291a6e17980
839365,00000000000000000001f8354b548396852d255d80e4ce3880e85a537a20fd4f
839366,00000000000000000000143e2b76547b5979e2c1f8626efc421dec7c4e655664
839367,0000000000000000000150325b352c0498bd6b75f56e03974697bc507bdece07
839368,00000000000000000001b16c81841e93520cc0cbf663f1ed0315ba81b6997538
839369,00000000000000000002f1c7770955748d95969f83cba2a1cd36704306b6399f
839370,0000000000000000000013ac5df98cbfe2ab0c7a14972b7593f0f72066004cde
